normalized-losses,price,price-binned-L5,Clustering
122,13495,Low-Medium,3
122,16500,Low-Medium,4
122,16500,Low-Medium,4
164,13950,Low-Medium,3
164,17450,Low-Medium,4
122,15250,Low-Medium,4
158,17710,Low-Medium,4
122,18920,Low-Medium,4
158,23875,Medium,1
192,16430,Low-Medium,4
192,16925,Low-Medium,4
188,20970,Low-Medium,1
188,21105,Low-Medium,1
122,24565,Medium,1
122,30760,Medium-High,2
122,41315,High,2
122,36880,Medium-High,2
121,5151,Low,0
98,6295,Low,0
81,6575,Low,0
118,5572,Low,0
118,6377,Low,0
118,7957,Low,0
148,6229,Low,0
148,6692,Low,0
148,7609,Low,0
148,8558,Low,0
110,8921,Low,0
145,12964,Low,3
137,6479,Low,0
137,6855,Low,0
101,5399,Low,0
101,6529,Low,0
101,7129,Low,0
110,7295,Low,0
78,7295,Low,0
106,7895,Low,0
106,9095,Low,0
85,8845,Low,0
85,10295,Low,3
85,12945,Low,3
107,10345,Low,3
122,6785,Low,0
122,11048,Low,3
145,32250,Medium-High,2
122,35550,Medium-High,2
122,36000,Medium-High,2
104,5195,Low,0
104,6095,Low,0
104,6795,Low,0
113,6695,Low,0
113,7395,Low,0
150,10945,Low,3
150,11845,Low,3
150,13645,Low-Medium,3
150,15645,Low-Medium,4
129,8845,Low,0
115,8495,Low,0
129,10595,Low,3
115,10245,Low,3
122,10795,Low,3
115,11245,Low,3
118,18280,Low-Medium,4
122,18344,Low-Medium,4
93,25552,Medium,1
93,28248,Medium,1
93,28176,Medium,1
93,31600,Medium-High,2
122,34184,Medium-High,2
142,35056,Medium-High,2
122,40960,High,2
122,45400,High,2
122,16503,Low-Medium,4
161,5389,Low,0
161,6189,Low,0
161,6669,Low,0
161,7689,Low,0
153,9959,Low,3
153,8499,Low,0
122,12629,Low,3
122,14869,Low-Medium,4
122,14489,Low-Medium,4
125,6989,Low,0
125,8189,Low,0
125,9279,Low,0
137,9279,Low,0
128,5499,Low,0
128,7099,Low,0
128,6649,Low,0
122,6849,Low,0
103,7349,Low,0
128,7299,Low,0
128,7799,Low,0
122,7499,Low,0
103,7999,Low,0
168,8249,Low,0
106,8949,Low,0
106,9549,Low,0
128,13499,Low-Medium,3
108,14399,Low-Medium,4
108,13499,Low-Medium,3
194,17199,Low-Medium,4
194,19699,Low-Medium,4
231,18399,Low-Medium,4
161,11900,Low,3
161,13200,Low-Medium,3
122,12440,Low,3
122,13860,Low-Medium,3
161,15580,Low-Medium,4
161,16900,Low-Medium,4
122,16695,Low-Medium,4
122,17075,Low-Medium,4
161,16630,Low-Medium,4
161,17950,Low-Medium,4
161,18150,Low-Medium,4
119,5572,Low,0
119,7957,Low,0
154,6229,Low,0
154,6692,Low,0
154,7609,Low,0
74,8921,Low,0
122,12764,Low,3
186,22018,Medium,1
122,32528,Medium-High,2
122,34028,Medium-High,2
122,37028,Medium-High,2
122,9295,Low,0
122,9895,Low,3
150,11850,Low,3
104,12170,Low,3
150,15040,Low-Medium,4
104,15510,Low-Medium,4
150,18150,Low-Medium,4
104,18620,Low-Medium,4
83,5118,Low,0
83,7053,Low,0
83,7603,Low,0
102,7126,Low,0
102,7775,Low,0
102,9960,Low,3
102,9233,Low,0
102,11259,Low,3
89,7463,Low,0
89,10198,Low,3
85,8013,Low,0
85,11694,Low,3
87,5348,Low,0
87,6338,Low,0
74,6488,Low,0
77,6918,Low,0
81,7898,Low,0
91,8778,Low,0
91,6938,Low,0
91,7198,Low,0
91,7898,Low,0
91,7788,Low,0
91,7738,Low,0
91,8358,Low,0
91,9258,Low,0
168,8058,Low,0
168,8238,Low,0
168,9298,Low,0
168,9538,Low,0
134,8449,Low,0
134,9639,Low,3
134,9989,Low,3
134,11199,Low,3
134,11549,Low,3
134,17669,Low-Medium,4
65,8948,Low,0
65,10698,Low,3
65,9988,Low,3
65,10898,Low,3
65,11248,Low,3
197,16558,Low-Medium,4
197,15998,Low-Medium,4
90,15690,Low-Medium,4
122,15750,Low-Medium,4
122,7775,Low,0
122,7975,Low,0
94,7995,Low,0
94,8195,Low,0
94,8495,Low,0
94,9495,Low,0
94,9995,Low,3
122,11595,Low,3
256,9980,Low,3
122,13295,Low-Medium,3
122,13845,Low-Medium,3
122,12290,Low,3
103,12940,Low,3
74,13415,Low-Medium,3
103,15985,Low-Medium,4
74,16515,Low-Medium,4
103,18420,Low-Medium,4
74,18950,Low-Medium,4
95,16845,Low-Medium,4
95,19045,Low-Medium,4
95,21485,Medium,1
95,22470,Medium,1
95,22625,Medium,1
